{
"name":"recipelister",
"version": "2.6.2",
"title":"Data Exporter to JSON",
"author":"Erythion",
"description":"Outputs|Exports a JSON file to /script-output/recipe-lister that lists all recipes, crafting machines, mining drills, resources, items, and more loaded on player creation. Settings to split output to each file, and toggles for each category.",
"factorio_version":"0.18",
"dependencies":["base >= 0.17.35"]
}
